%YAML 1.1
%TAG !u! tag:unity3d.com,2011:
--- !u!21 &2100000
Material:
  serializedVersion: 6
  m_ObjectHideFlags: 0
  m_CorrespondingSourceObject: {fileID: 0}
  m_PrefabInternal: {fileID: 0}
  m_Name: sky
  m_Shader: {fileID: 106, guid: 0000000000000000f000000000000000, type: 0}
  m_ShaderKeywords: _SUNDISK_HIGH_QUALITY
  m_LightmapFlags: 4
  m_EnableInstancingVariants: 0
  m_DoubleSidedGI: 0
  m_CustomRenderQueue: -1
  stringTagMap: {}
  disabledShaderPasses: []
  m_SavedProperties:
    serializedVersion: 3
    m_TexEnvs: []
    m_Floats:
    - _AtmosphereThickness: 1
    - _Exposure: 1.3
    - _SunDisk: 2
    - _SunSize: 0.04
    - _SunSizeConvergence: 5
    m_Colors:
    - _GroundColor: {r: 0.369, g: 0.349, b: 0.341, a: 1}
    - _SkyTint: {r: 0.5, g: 0.5, b: 0.5, a: 1}
